<svg width="200" height="128" viewBox="0 0 200 128" fill="none" xmlns="http://www.w3.org/2000/svg">
<path d="M61.0621 46.7833C63.5611 38.4727 68.5142 31.1051 75.2744 25.6427C82.0156 20.5551 90.0168 17.3928 98.4197 16.4951C106.881 15.7048 115.376 17.5677 122.721 21.8241C130.066 26.0805 135.894 32.5181 139.393 40.2393C142.781 47.912 143.802 56.4189 142.324 64.6759C140.846 72.933 136.938 80.566 131.096 86.6023C125.255 92.6386 117.745 96.8048 109.524 98.5697C101.303 100.335 92.7438 99.6185 84.9364 96.5125C66.2576 88.7376 54.704 66.1704 61.0621 46.7833C61.6634 44.9545 58.898 43.794 58.3165 45.6253C52.2896 64.1722 60.8267 84.8842 76.8716 95.5695C92.379 105.904 113.584 104.513 128.182 93.1963C135.253 87.7655 140.565 80.3788 143.455 71.9583C146.345 63.5378 146.686 54.4566 144.433 45.8484C142.114 37.071 137.116 29.2321 130.13 23.4169C123.145 17.6016 114.519 14.0977 105.445 13.3901C95.1282 12.844 84.9031 15.5915 76.2534 21.2338C67.6236 27.0482 61.2835 35.6698 58.3165 45.6253C57.7083 47.3529 60.4633 48.5923 61.0621 46.7833Z" fill="#162740"/>
<path d="M143.833 70.9361C149.203 51.5613 135.932 32.2834 118.192 24.7102C107.207 19.7944 94.7763 19.138 83.3255 22.8689C77.7417 25.0165 72.7052 28.3745 68.58 32.7001C64.4549 37.0257 61.3442 42.2108 59.4728 47.8806C57.3713 53.5627 56.6966 59.6706 57.5076 65.6705C58.3185 71.6705 60.5905 77.3799 64.125 82.2997C69.851 89.911 77.5501 95.8196 86.3943 99.3899C89.0321 100.638 91.8486 101.47 94.7431 101.855C97.279 102.119 99.8313 102.194 102.379 102.08C110.6 101.807 118.588 99.2777 125.465 94.7709C133.833 88.8299 140.23 80.5291 143.833 70.9361C143.904 70.6461 143.87 70.3402 143.735 70.0735C143.601 69.8069 143.375 69.5968 143.099 69.4813C142.823 69.3658 142.515 69.3523 142.23 69.4433C141.945 69.5343 141.701 69.7238 141.544 69.9777C135.355 84.9919 123.661 96.725 107.126 99.1619C102.581 99.8081 97.9686 99.8126 93.4236 99.1754C89.4277 98.2956 85.6161 96.7295 82.159 94.5471C78.135 92.3715 74.4287 89.657 71.143 86.479C67.6575 83.244 64.8577 79.3446 62.9089 75.0113C60.9601 70.6779 59.9018 65.9982 59.7966 61.2487C59.8533 55.4732 61.1644 49.7776 63.6398 44.5543C66.1151 39.3309 69.6958 34.704 74.1351 30.9922C83.3599 23.3751 95.7258 21.583 107.327 23.9468C127.85 28.087 147.712 47.7357 141.544 69.9777C141.102 71.5061 143.408 72.4868 143.833 70.9361Z" fill="#162740"/>
<path d="M71.1758 90.8201C72.9569 96.8484 76.666 102.129 81.7373 105.855C86.8086 109.582 92.9638 111.55 99.264 111.46C109.954 111.578 121.564 106.194 125.329 95.5585C125.847 94.0594 123.64 93.0912 123.02 94.5971C119.536 104.466 108.686 109.266 98.7823 108.989C93.0534 108.966 87.4882 107.088 82.9242 103.637C78.3602 100.186 75.0443 95.3487 73.4755 89.8528C73.0334 88.3098 70.7509 89.2994 71.1758 90.8201Z" fill="#162740"/>
<path d="M85.3765 36.687C86.0323 36.7718 86.6953 36.5933 87.2196 36.1906C87.7439 35.788 88.0865 35.1942 88.172 34.54C88.2576 33.8857 88.0791 33.2245 87.6759 32.7019C87.2726 32.1793 86.6776 31.838 86.0218 31.7531C85.3659 31.6683 84.7029 31.8468 84.1786 32.2495C83.6544 32.6521 83.3117 33.2459 83.2262 33.9001C83.1406 34.5544 83.3191 35.2156 83.7223 35.7382C84.1256 36.2608 84.7206 36.6021 85.3765 36.687Z" fill="#162740"/>
<path d="M76.7465 38.393C72.7054 42.1261 70.1218 47.1673 69.4555 52.6196C69.3699 53.2737 69.5483 53.9348 69.9515 54.4573C70.3546 54.9799 70.9495 55.3211 71.6052 55.4059C72.2609 55.4908 72.9237 55.3123 73.4478 54.9097C73.972 54.5071 74.3145 53.9134 74.4 53.2593C74.4775 52.6673 74.5523 52.0951 74.6297 51.5031C74.7071 50.9112 74.7045 50.9309 74.7433 50.6349C74.7545 50.4893 74.7734 50.3444 74.8 50.2008C75.1251 49.1456 75.5352 48.1182 76.0264 47.1289C76.0625 46.8526 76.2964 46.6019 76.4315 46.3385C76.5665 46.075 76.465 46.082 76.4315 46.3385L76.6611 45.9669C76.938 45.5412 77.2175 45.0958 77.5314 44.6949C77.8453 44.2941 78.2589 43.7456 78.6373 43.313L79.2444 42.6692C79.4336 42.4529 79.4336 42.4529 79.2444 42.6692C79.3607 42.5798 79.4681 42.4794 79.5652 42.3696C80.0776 41.9578 80.4111 41.3648 80.4962 40.7142C80.5813 40.0635 80.4114 39.4054 80.022 38.877C79.6157 38.3636 79.0243 38.0291 78.3739 37.9449C77.7235 37.8608 77.0657 38.0336 76.541 38.4266L76.7465 38.393Z" fill="#162740"/>
<path d="M61.0452 111.764C56.3844 118.806 52.0304 127.191 50.6889 135.605C49.9279 140.503 49.399 145.471 48.7592 150.364C48.0932 154.507 47.6545 158.684 47.445 162.875C47.2641 172.101 47.5879 181.313 48.0106 190.537C48.4804 201.092 49.2693 211.667 49.8999 222.223L50.8087 220.655C48.9047 221.021 47.1099 221.818 45.5628 222.985C44.0157 224.152 42.7576 225.657 41.8854 227.386C41.7327 227.749 41.7302 228.158 41.8783 228.523C42.0265 228.888 42.3133 229.179 42.6762 229.334C49.858 231.513 57.2236 233.037 64.6824 233.887C67.9 234.541 71.197 234.717 74.4669 234.411C75.5616 234.099 76.5374 233.466 77.268 232.595C77.9986 231.724 78.4503 230.654 78.5646 229.524C80.2293 222.175 80.8399 214.428 81.9364 206.966L85.4277 183.34C85.4791 182.948 85.372 182.551 85.1302 182.237C84.8884 181.924 84.5315 181.719 84.1382 181.668C83.7449 181.617 83.3473 181.725 83.0329 181.966C82.7185 182.208 82.513 182.564 82.4617 182.956L76.5513 223.083C76.2624 225.293 76.3671 230.644 73.8394 231.521C72.1869 231.751 70.5072 231.697 68.8737 231.36C67.2918 231.155 65.6944 231.069 64.11 230.884C57.2385 230.066 50.4533 228.644 43.8335 226.635L44.6218 228.603C46.0731 225.5 48.9412 224.326 52.0397 223.543C52.3412 223.411 52.5914 223.184 52.7523 222.897C52.9132 222.61 52.976 222.279 52.9313 221.953C51.6854 203.493 50.2882 185.113 50.4539 166.775C50.499 157.05 52.2403 147.424 53.4993 137.795C54.9631 129.092 58.3594 120.825 63.4395 113.599C64.4918 112.01 62.1397 110.16 61.065 111.767L61.0452 111.764Z" fill="#162740"/>
<path d="M121.583 123.601C123.034 129.009 124.108 134.511 124.798 140.069C125.076 141.919 125.101 143.799 124.872 145.656L122.839 161.204C122.441 165.169 121.805 169.107 120.935 172.996C118.693 181.996 115.963 190.873 113.16 199.7C110.111 209.338 106.903 218.794 103.728 228.316C103.606 228.622 103.586 228.959 103.671 229.277C103.756 229.595 103.942 229.878 104.201 230.082C106.982 231.726 109.458 233.551 110.051 236.859L111.319 235.157C104.41 235.416 97.491 235.064 90.6443 234.107C89.0624 233.902 87.4607 233.695 85.8969 233.352C84.3678 233.237 82.8608 232.92 81.4151 232.411C78.7491 230.962 80.2633 225.841 80.5832 223.394L85.2196 183.323C85.2709 182.931 85.1639 182.534 84.922 182.22C84.6802 181.907 84.3233 181.702 83.93 181.651C83.5367 181.6 83.1391 181.708 82.8247 181.949C82.5103 182.191 82.3048 182.547 82.2535 182.939L79.5161 206.181C78.6389 213.813 77.1942 221.632 76.9326 229.323C76.7496 230.412 76.8927 231.53 77.344 232.538C77.7952 233.546 78.5346 234.398 79.4694 234.988C82.0787 236.409 85.84 236.555 88.7562 237.012C96.3335 238.138 104 238.559 111.656 238.27C112.048 238.213 112.401 238.005 112.641 237.691C112.881 237.377 112.989 236.982 112.941 236.591C112.538 234.7 111.708 232.926 110.513 231.405C109.318 229.883 107.79 228.655 106.046 227.813L106.521 229.56C112.341 212.114 118.342 194.672 123.041 176.881C125.597 167.179 126.412 157.252 127.706 147.207C128.75 139.216 126.621 130.894 124.573 123.185C124.088 121.357 121.123 121.735 121.602 123.603L121.583 123.601Z" fill="#162740"/>
<path d="M153.014 78.1408C152.291 76.8157 151.759 75.3955 151.433 73.922C151.023 72.6757 150.94 71.345 151.194 70.0574C152.159 66.8304 155.923 67.7389 157.513 69.8914C158.33 71.1361 158.886 72.5324 159.149 73.997C159.278 74.6855 159.6 75.3234 160.078 75.8364C160.555 76.3495 161.169 76.7166 161.848 76.8953C163.13 77.3159 164.286 78.0485 165.212 79.0269C166.137 80.0052 166.804 81.1985 167.152 82.4988C167.534 84.0336 170.011 83.7118 169.631 82.1572C169.018 79.5462 167.431 77.2667 165.193 75.7824C164.597 75.4009 163.966 75.0773 163.307 74.8159C162.811 74.6112 161.997 74.526 161.651 74.0998C161.376 73.553 161.208 72.9592 161.155 72.3497C160.95 71.5864 160.684 70.8407 160.36 70.1193C159.849 68.8704 159.009 67.7828 157.929 66.9717C156.848 66.1605 155.568 65.6561 154.223 65.5117C152.877 65.4621 151.561 65.9133 150.529 66.7777C149.498 67.6421 148.825 68.8579 148.641 70.1889C148.437 71.6789 148.562 73.1951 149.006 74.6317C149.36 76.1992 149.928 77.7109 150.692 79.125C151.499 80.4939 153.798 79.5269 152.994 78.1383L153.014 78.1408Z" fill="#162740"/>
<path d="M161.302 71.9332C161.02 68.7061 161.486 65.4569 162.665 62.4371C163.661 59.8971 165.18 56.7424 167.873 55.686C168.396 55.4448 168.979 55.3648 169.547 55.4562C170.116 55.5477 170.644 55.8064 171.064 56.1993C171.779 57.057 172.171 58.1368 172.173 59.2525C172.175 62.208 171.153 65.0741 169.282 67.3668C168.367 68.6732 170.338 70.2125 171.255 68.8864C173.046 66.6072 174.205 63.899 174.616 61.0334C174.824 59.8092 174.742 58.5535 174.377 57.3669C174.012 56.1802 173.373 55.0955 172.513 54.1993C171.427 53.4245 170.112 53.0342 168.778 53.0907C167.444 53.1472 166.167 53.6471 165.15 54.511C162.931 56.4408 161.272 58.9289 160.345 61.7157C159.051 65.1053 158.528 68.7389 158.813 72.3537C158.948 73.9364 161.407 73.5923 161.292 72.0122L161.302 71.9332Z" fill="#162740"/>
<path d="M171.475 68.6162C172.918 66.1278 174.632 63.8056 176.585 61.6916C177.843 60.2287 179.961 56.9507 182.279 57.9931C182.839 58.2349 183.327 58.6158 183.697 59.0992C184.066 59.5827 184.306 60.1527 184.392 60.7549C184.291 62.1778 183.911 63.5673 183.274 64.8447C182.368 67.8575 180.97 70.7007 179.136 73.2597C179.035 73.3929 178.962 73.5446 178.92 73.7061C178.878 73.8676 178.868 74.0357 178.892 74.2008C178.938 74.5343 179.116 74.8355 179.386 75.038C179.656 75.2405 179.995 75.3279 180.329 75.2808C180.664 75.2337 180.966 75.0561 181.169 74.787C182.935 72.4078 184.3 69.758 185.213 66.9417C186.152 64.3741 187.727 61.4071 186.43 58.7107C185.935 57.6011 185.098 56.6781 184.041 56.0757C182.984 55.4734 181.761 55.2232 180.551 55.3614C178.022 55.9372 176.351 58.2497 174.765 60.0714C172.639 62.3866 170.781 64.9332 169.226 67.663C168.478 69.0714 170.787 70.0323 171.534 68.6239L171.475 68.6162Z" fill="#162740"/>
<path d="M181.948 73.6449C183.415 71.8328 185.415 70.5262 187.667 69.9096C189.494 69.6243 191.464 70.5614 191.331 72.6513C190.91 74.8245 189.774 76.796 188.104 78.2541C186.352 80.0235 184.346 81.5225 182.151 82.7016C181.852 82.8339 181.617 83.0772 181.495 83.3799C181.372 83.6826 181.373 84.0208 181.497 84.3227C181.558 84.4738 181.649 84.611 181.765 84.7262C181.881 84.8413 182.019 84.932 182.17 84.9928C182.322 85.0536 182.484 85.0833 182.648 85.0802C182.811 85.077 182.972 85.041 183.122 84.9743C185.24 83.809 187.198 82.3762 188.95 80.7114C190.699 79.1893 192.115 77.3226 193.106 75.2289C193.601 74.2663 193.813 73.1845 193.719 72.1075C193.625 71.0305 193.229 70.0019 192.575 69.1399C191.822 68.3616 190.871 67.8024 189.823 67.5219C188.776 67.2415 187.671 67.2504 186.628 67.5477C184.04 68.4324 181.746 70.0101 179.997 72.1081C178.899 73.2705 180.873 74.7901 181.97 73.6277L181.948 73.6449Z" fill="#162740"/>
<path d="M186.13 83.1326C187.249 82.2739 188.92 81.1857 190.345 81.6711C190.968 81.8832 191.485 82.3294 191.784 82.9151C192.083 83.5008 192.141 84.1799 191.946 84.8081C191.27 86.2641 190.131 87.457 188.706 88.2017C187.35 89.1902 186.013 90.1812 184.711 91.2167C183.409 92.2523 184.967 94.1797 186.222 93.1982C187.477 92.2167 188.727 91.2747 189.996 90.3352C191.429 89.4934 192.678 88.3717 193.666 87.0374C194.156 86.3162 194.454 85.4826 194.533 84.6151C194.611 83.7476 194.467 82.8747 194.113 82.0784C193.772 81.3238 193.246 80.6668 192.584 80.1674C191.922 79.6681 191.144 79.3424 190.323 79.2201C188.241 79.1269 186.204 79.8502 184.649 81.2352C184.426 81.4484 184.29 81.7356 184.266 82.0422C184.243 82.3487 184.332 82.6532 184.519 82.8979C184.706 83.1425 184.976 83.3101 185.278 83.3689C185.581 83.4277 185.894 83.3735 186.16 83.2167L186.13 83.1326Z" fill="#162740"/>
<path d="M150.718 78.1391C148.84 81.7302 150.482 87.0214 152.395 90.4003C154.427 93.5844 157.35 96.1049 160.803 97.6508C165.317 99.9011 170.622 101.651 175.675 100.398C177.947 99.9836 180.102 99.0825 181.991 97.757C183.881 96.4315 185.46 94.7132 186.619 92.7205C187.31 91.2842 184.922 90.3128 184.31 91.7593C182.528 95.383 178.037 97.572 174.175 98.1765C169.844 98.5398 165.508 97.5509 161.768 95.3468C158.956 94.0862 156.54 92.0878 154.778 89.5644C153.116 86.8804 151.459 82.1694 153.001 79.2976C153.732 77.8665 151.443 76.9079 150.695 78.3167L150.718 78.1391Z" fill="#162740"/>
<path d="M126.983 152.638C140.525 155.996 151.265 145.244 158.844 135.589C167.266 124.878 175.168 113.519 178.742 100.195C179.143 98.6615 176.668 98.3613 176.269 99.875C172.971 112.171 165.651 122.763 157.895 132.697C150.631 142.092 140.612 153.478 127.266 150.166C125.729 149.767 125.406 152.234 126.943 152.633L126.983 152.638Z" fill="#162740"/>
<path d="M125.888 93.7831C128.047 99.5829 134.865 102.071 140.634 101.191C143.535 100.763 146.278 99.6001 148.601 97.8129C150.924 96.0257 152.748 93.6743 153.901 90.9836C153.993 90.6856 153.971 90.3641 153.838 90.0818C153.706 89.7995 153.473 89.5766 153.185 89.4565C152.896 89.3365 152.573 89.328 152.279 89.4326C151.984 89.5372 151.739 89.7474 151.592 90.0223C150.631 92.2551 149.127 94.2133 147.215 95.7189C145.303 97.2246 143.045 98.2299 140.645 98.6434C135.849 99.4682 130.027 97.6711 128.192 92.7764C127.624 91.2776 125.324 92.2447 125.893 93.7436L125.888 93.7831Z" fill="#162740"/>
<path d="M148.162 96.5064C148.601 98.8088 149.85 100.878 151.685 102.342C153.483 104.141 155.493 105.716 157.671 107.031C161.995 109.653 166.873 111.233 171.918 111.645C173.501 111.849 173.853 109.306 172.24 109.177C165.586 108.687 159.293 105.977 154.372 101.485C152.863 100.106 150.761 98.3281 150.644 96.1449C150.529 94.5642 148.049 94.9059 148.162 96.5064Z" fill="#162740"/>
<path d="M142.416 100.455C143.563 106.323 146.63 111.643 151.136 115.582C155.642 119.522 161.332 121.857 167.315 122.223C168.896 122.287 169.238 119.822 167.637 119.755C162.198 119.463 157.011 117.374 152.894 113.818C148.778 110.262 145.964 105.441 144.895 100.114C144.597 98.5495 142.14 98.874 142.416 100.455Z" fill="#162740"/>
<path d="M45.772 65.514C47.7065 63.5691 49.1203 61.1706 49.8833 58.5392C50.2991 57.2397 50.2263 55.8341 49.6788 54.5849C49.1312 53.3358 48.1463 52.3286 46.9081 51.7515C45.6038 51.2916 44.193 51.2219 42.849 51.5507C41.5049 51.8796 40.2861 52.5928 39.3422 53.6028C38.3326 54.7038 37.4918 55.9478 36.8474 57.2943C36.5498 57.878 36.3923 58.1587 35.699 58.2296C35.0146 58.2554 34.3329 58.3281 33.6585 58.4473C32.1648 58.7828 30.7602 59.4336 29.5394 60.3559C28.3186 61.2782 27.3098 62.4505 26.5812 63.794C25.8138 65.2001 28.1252 66.1414 28.89 64.7551C29.563 63.5887 30.5151 62.6067 31.6613 61.8969C32.8075 61.187 34.1119 60.7714 35.458 60.6873C36.1727 60.6814 36.871 60.4721 37.4707 60.0839C38.0704 59.6956 38.5465 59.1447 38.8431 58.4958C39.4677 57.1778 40.3471 55.9955 41.4308 55.017C43.529 53.2813 47.394 53.4201 47.4971 56.7853C47.4208 58.0965 46.9982 59.3644 46.272 60.4605C45.578 61.802 44.6982 63.0395 43.6585 64.1367C42.5238 65.2745 44.498 66.7944 45.6301 65.6763L45.772 65.514Z" fill="#162740"/>
<path d="M39.6801 56.8198C40.7416 53.8262 41.2042 50.6544 41.0419 47.4841C40.9871 44.4697 40.208 41.513 38.77 38.8623C38.1599 37.6694 37.189 36.6983 35.9947 36.0865C34.8004 35.4746 33.4433 35.253 32.1151 35.4528C30.9446 35.822 29.898 36.5046 29.0893 37.4262C28.2806 38.3478 27.741 39.4729 27.5292 40.679C26.8265 43.9332 27.1639 47.3244 28.4938 50.3759C29.0201 51.8888 31.3216 50.9022 30.7927 49.409C29.5838 46.7483 29.3156 43.7565 30.0319 40.9225C30.3056 39.803 30.9774 38.8203 31.9224 38.157C32.423 37.871 32.9978 37.7408 33.573 37.783C34.1481 37.8252 34.6974 38.038 35.1501 38.394C37.4395 40.1149 38.1145 43.413 38.449 46.0851C38.8488 49.3543 38.4906 52.6721 37.4019 55.7825C36.8643 57.2782 39.091 58.2486 39.6905 56.7408L39.6801 56.8198Z" fill="#162740"/>
<path d="M30.8613 49.7167C30.1772 47.0439 29.2003 44.4544 27.9484 41.995C27.0795 39.5505 25.698 37.3193 23.8958 35.4502C22.8813 34.7523 21.6532 34.4316 20.4254 34.5441C19.1975 34.6567 18.0479 35.1952 17.1767 36.066C14.7528 38.1406 15.1827 41.0057 15.4123 43.865C15.5586 47.1909 16.2584 50.4689 17.4831 53.565C17.6359 53.8297 17.8806 54.0296 18.1709 54.127C18.4613 54.2243 18.7774 54.2125 19.0598 54.0938C19.3422 53.975 19.5715 53.7575 19.7045 53.482C19.8376 53.2066 19.8652 52.8923 19.7822 52.5981C18.6836 49.7034 18.0705 46.6476 17.9677 43.5535C17.6585 42.1114 17.648 40.6213 17.9369 39.1746C18.1665 38.6121 18.5396 38.1191 19.0191 37.7446C19.4986 37.3702 20.0679 37.1272 20.6704 37.0398C23.157 36.639 24.2784 40.2157 25.16 41.9352C26.5415 44.5111 27.6227 47.2366 28.3825 50.0583C28.7428 51.61 31.2191 51.2882 30.8613 49.7167Z" fill="#162740"/>
<path d="M19.2182 51.2763C17.2728 47.6934 13.2616 42.6793 8.54667 44.7384C3.8317 46.7974 5.81736 52.9942 7.71197 56.3498C9.11359 58.7639 10.8502 60.968 12.8704 62.8969C12.9975 62.9994 13.1441 63.0752 13.3013 63.1198C13.4585 63.1645 13.6231 63.1771 13.7854 63.1568C13.9476 63.1366 14.1041 63.084 14.2455 63.0021C14.387 62.9203 14.5105 62.8108 14.6086 62.6803C14.8059 62.42 14.8937 62.0933 14.8534 61.7696C14.8131 61.4459 14.6479 61.1507 14.3928 60.9467C12.6491 59.2537 11.161 57.3172 9.97485 55.1977C8.70514 53.3702 8.08628 51.1706 8.2171 48.95C8.30751 48.5231 8.49861 48.1237 8.77455 47.7849C9.05049 47.4461 9.40333 47.1778 9.80385 47.002C10.2044 46.8263 10.641 46.7483 11.0776 46.7744C11.5143 46.8005 11.9383 46.9301 12.3145 47.1523C14.4122 48.3006 16.0824 50.0929 17.0774 52.2636C17.2592 52.4445 17.4923 52.5654 17.7452 52.61C17.9981 52.6547 18.2587 52.621 18.4919 52.5134C18.7252 52.4058 18.9198 52.2296 19.0497 52.0084C19.1795 51.7872 19.2383 51.5317 19.2182 51.2763Z" fill="#162740"/>
<path d="M12.4735 58.827C11.4707 57.3607 10.0352 56.2422 8.36602 55.6267C7.55045 55.3742 6.68249 55.3404 5.84931 55.5285C5.01613 55.7166 4.24706 56.12 3.61936 56.6982C2.98183 57.2807 2.50411 58.016 2.23161 58.8342C1.95912 59.6525 1.9009 60.5265 2.06249 61.3732C2.48792 62.9949 3.31741 64.4828 4.47391 65.6986C5.61687 67.1107 6.74004 68.5203 7.9346 69.9992C9.12915 71.4782 10.8631 69.756 9.90503 68.4682C8.94698 67.1803 7.87541 65.8377 6.83823 64.5396C5.61319 63.4955 4.77274 62.0732 4.45003 60.4981C4.4388 59.8525 4.67574 59.2269 5.11222 58.7497C5.54871 58.2726 6.15162 57.98 6.7972 57.9321C8.34185 57.8109 9.69724 59.2906 10.4953 60.4173C10.7114 60.6364 11.0007 60.7685 11.3083 60.7887C11.6158 60.8088 11.9202 60.7155 12.1634 60.5265C12.4067 60.3375 12.5719 60.066 12.6276 59.7635C12.6833 59.4611 12.6258 59.1489 12.4658 58.8862L12.4735 58.827Z" fill="#162740"/>
<path d="M43.5952 64.9215C44.3151 68.1863 41.5406 72.3238 39.2177 74.392C36.8651 76.383 34.0155 77.7002 30.9726 78.2033C26.7898 79.3823 22.3439 79.2351 18.2508 77.7818C14.6729 76.2149 10.8319 72.9678 10.1034 68.9993C9.80492 67.4351 7.32816 67.757 7.64382 69.3435C8.25048 71.5627 9.33207 73.6239 10.8141 75.3855C12.2962 77.147 14.1436 78.567 16.2291 79.5477C20.7919 82.0451 26.3898 81.7054 31.3132 80.6762C35.05 80.0647 38.5251 78.3713 41.3064 75.8065C44.0138 73.1055 46.9493 68.507 46.0806 64.3798C45.74 62.8302 43.2606 63.1719 43.6184 64.7438L43.5952 64.9215Z" fill="#162740"/>
<path d="M50.141 140.231C36.3867 140.037 29.6502 126.483 25.0252 115.55C20.1189 103.998 15.7699 91.8766 15.705 79.1453C15.7085 77.5805 13.2384 77.2408 13.2323 78.8254C13.2594 92.6154 17.9876 105.529 23.3634 118.104C28.2069 129.366 35.8241 142.493 49.7788 142.693C51.3674 142.698 51.7098 140.233 50.1014 140.226L50.141 140.231Z" fill="#162740"/>
<path d="M64.03 84.4894C60.9973 88.7544 54.9073 89.0103 50.4829 86.9925C48.2694 85.9822 46.3447 84.4357 44.8838 82.4937C43.4228 80.5516 42.472 78.2757 42.1178 75.8729C42.0457 75.5696 41.863 75.304 41.6052 75.1279C41.3474 74.9518 41.033 74.8779 40.7234 74.9206C40.4138 74.9633 40.1311 75.1195 39.9305 75.3587C39.7299 75.5979 39.6257 75.9031 39.6384 76.2146C40.0676 79.1065 41.2297 81.8407 43.0146 84.1583C44.7996 86.4759 47.1483 88.3003 49.8384 89.4586C55.1893 91.777 62.4227 91.0868 65.9992 86.0491C66.9344 84.7448 64.96 83.2246 64.0248 84.5289L64.03 84.4894Z" fill="#162740"/>
<path d="M41.3766 81.9698C40.7029 83.8901 38.3448 85.1508 36.5726 86.0859C34.6306 87.1352 32.5783 87.9671 30.4532 88.5663C26.1418 89.7052 21.6324 89.8826 17.246 89.0858C15.663 88.881 15.3507 91.2696 16.9233 91.5534C21.9058 92.4407 27.0281 92.1548 31.8821 90.7185C34.2267 90.0136 36.4813 89.0388 38.6002 87.8136C40.819 86.8456 42.6207 85.1218 43.683 82.9508C44.2036 81.4322 41.9935 80.4838 41.3766 81.9698Z" fill="#162740"/>
<path d="M46.0491 87.1892C43.6392 92.0667 39.6746 96.0094 34.7774 98.3983C29.8803 100.787 24.3278 101.487 18.9914 100.388C17.4267 100.045 17.1238 102.515 18.6687 102.856C24.533 104.029 30.6232 103.232 35.9884 100.589C41.3535 97.9461 45.6916 93.606 48.3252 88.2464C48.9988 86.788 46.6281 85.839 46.0362 87.2879L46.0491 87.1892Z" fill="#162740"/>
<path d="M51.5629 88.236C51.5743 86.7664 51.7055 85.3001 51.9553 83.8516C52.1435 82.6025 52.5808 81.4035 53.2413 80.3254C53.5836 79.7992 54.0323 79.35 54.5588 79.0068C55.0852 78.6637 55.6777 78.4341 56.2982 78.3327C57.9548 78.1886 59.6188 78.5011 61.1088 79.236C61.412 79.3657 61.7545 79.37 62.061 79.2478C62.3674 79.1256 62.6128 78.887 62.7431 78.5845C62.8733 78.282 62.8778 77.9404 62.7556 77.6348C62.6333 77.3292 62.3943 77.0846 62.0912 76.9549C60.256 76.0854 58.2238 75.7118 56.1977 75.8714C54.3824 76.1034 52.7297 77.0349 51.5934 78.4666C49.7996 81.2841 48.9506 84.5972 49.1692 87.9263C49.1418 88.2514 49.2384 88.5746 49.4399 88.8314C49.6413 89.0882 49.9326 89.2595 50.2555 89.3111C50.5808 89.3532 50.9096 89.2646 51.1696 89.0649C51.4297 88.8652 51.5996 88.5707 51.642 88.2462L51.5629 88.236Z" fill="#162740"/>
<path d="M131.351 89.8937C132.515 89.3864 133.797 89.2092 135.055 89.3816C136.313 89.554 137.499 90.0693 138.482 90.8708C139.465 91.6724 140.207 92.729 140.627 93.9246C141.046 95.1201 141.127 96.4081 140.86 97.6469C140.653 99.2259 143.047 99.5356 143.333 97.9668C143.655 96.2935 143.514 94.5646 142.925 92.966C142.336 91.3673 141.321 89.9594 139.989 88.8935C138.658 87.8276 137.06 87.144 135.367 86.9163C133.675 86.6885 131.952 86.9252 130.383 87.6008C130.118 87.7535 129.917 87.9977 129.819 88.2875C129.722 88.5772 129.733 88.8926 129.852 89.1742C129.971 89.4559 130.189 89.6844 130.465 89.8169C130.741 89.9494 131.056 89.9767 131.351 89.8937Z" fill="#162740"/>
</svg>
