<svg width="75" height="73" viewBox="0 0 75 73" fill="none" xmlns="http://www.w3.org/2000/svg">
<path d="M61.089 0H13.9116C11.8552 0 9.67773 1.88387 9.67773 3.88548V50.9823L33.6293 73H61.089C63.1455 73 65.3229 71.1161 65.3229 69.1145V3.88548C65.3229 1.88387 63.1455 0 61.089 0Z" fill="#45E2C4"/>
<path d="M61.089 0H13.9116C11.8552 0 9.67773 1.88387 9.67773 3.88548V50.9823L33.6293 73H61.089C63.1455 73 65.3229 71.1161 65.3229 69.1145V3.88548C65.3229 1.88387 63.1455 0 61.089 0Z" fill="#D14F26"/>
<path d="M65.3213 56.5161V3.88548C65.3213 1.88387 63.1439 0 61.0875 0H13.91C11.8536 0 10.0391 1.64839 10.0391 3.53226" fill="#C62A15"/>
<path d="M65.3221 56.5161V3.88548C65.3221 1.88387 63.1447 0 61.0883 0H31.4512" fill="#B71B06"/>
<path d="M30.2422 51.8064V69.3499C30.2422 69.5854 30.4841 69.8209 30.4841 70.0564L33.3874 72.7645C33.6293 72.7645 33.8712 72.9999 34.1132 72.9999H53.1051L30.7261 51.8064H30.2422Z" fill="#D0260F"/>
<path d="M30.2422 51.6887V69.35C30.2422 69.5855 30.4841 69.821 30.4841 70.0565L33.3874 72.7645C33.6293 72.7645 33.8712 73 34.1132 73H43.7906L32.7825 55.221L30.2422 51.6887Z" fill="#B71B06"/>
<path d="M33.6293 73H33.8713V54.5145C33.8713 52.5129 32.0568 50.629 30.0003 50.629L9.67773 50.8645L33.6293 73Z" fill="white"/>
<path d="M9.67773 50.8645L33.6293 73H33.8713V54.1613" fill="#F0B2A9"/>
<path d="M12.0971 50.8645V3.88548C12.0971 1.88387 13.5487 0 15.4842 0H13.9116C11.8552 0 9.67773 1.88387 9.67773 3.88548V50.9823L12.0971 50.8645Z" fill="#E87E70"/>
<path d="M52.8629 23.7838L48.3871 19.4274C47.4194 18.4854 46.0887 17.8967 44.6371 17.8967C43.1855 17.8967 41.9758 18.4854 40.8871 19.4274L21.1694 38.5016C20.4435 39.208 20.4435 40.2677 21.1694 40.8564C21.8952 41.5629 22.9839 41.5629 23.5887 40.8564L43.3064 21.6645C43.9113 21.0758 45.121 21.0758 45.7258 21.6645L50.2016 26.0209C50.5645 26.3741 50.6855 26.7274 50.6855 27.1983C50.6855 27.6693 50.4435 28.0225 50.2016 28.3758L43.5484 35.087C43.5484 35.087 43.4274 35.087 43.4274 35.2048L32.1774 46.1548C32.0565 46.2725 31.9355 46.2725 31.8145 46.1548L29.2742 43.6822C29.1532 43.5645 29.1532 43.4467 29.2742 43.329L36.7742 36.029C37.5 35.3225 37.5 34.2629 36.7742 33.6741C36.0484 32.9677 34.9597 32.9677 34.3548 33.6741L26.8548 40.9741C25.4032 42.387 25.4032 44.7419 26.8548 46.1548L29.3952 48.6274C30.121 49.3338 31.0887 49.687 32.0565 49.687C33.0242 49.687 33.9919 49.3338 34.7177 48.6274L39.6774 43.7999C39.6774 43.7999 39.7984 43.7999 39.7984 43.6822L52.8629 30.9661C53.8306 30.0241 54.4355 28.729 54.4355 27.3161C54.3145 26.0209 53.8306 24.7258 52.8629 23.7838Z" fill="#B71B06"/>
<path d="M52.8629 20.4871L48.3871 16.1306C47.4194 15.1887 46.0887 14.6 44.6371 14.6C43.1855 14.6 41.9758 15.1887 40.8871 16.1306L21.1694 35.3226C20.4435 36.029 20.4435 37.0887 21.1694 37.6774C21.8952 38.2661 22.9839 38.3838 23.5887 37.6774L43.3064 18.4855C43.9113 17.8968 45.121 17.8968 45.7258 18.4855L50.2016 22.8419C50.5645 23.1951 50.6855 23.5484 50.6855 24.0193C50.6855 24.4903 50.4435 24.8435 50.2016 25.1968L43.5484 31.908C43.5484 31.908 43.4274 31.908 43.4274 32.0258L32.1774 42.9758C32.0565 43.0935 31.9355 43.0935 31.8145 42.9758L29.2742 40.5032C29.1532 40.3855 29.1532 40.2677 29.2742 40.15L36.7742 32.85C37.5 32.1435 37.5 31.0838 36.7742 30.4951C36.0484 29.7887 34.9597 29.7887 34.3548 30.4951L26.8548 37.6774C25.4032 39.0903 25.4032 41.4451 26.8548 42.858L29.3952 45.3306C30.121 46.0371 31.0887 46.3903 32.0565 46.3903C33.0242 46.3903 33.9919 46.0371 34.7177 45.3306L39.6774 40.5032C39.6774 40.5032 39.7984 40.5032 39.7984 40.3855L52.8629 27.6693C53.8306 26.7274 54.4355 25.4322 54.4355 24.0193C54.3145 22.7242 53.8306 21.429 52.8629 20.4871Z" fill="white"/>
</svg>
